uf;concessionaria; tarifab ;tarifaf
SC;CELESC-DIS;0.44436 ;0.63936691
PR;COPEL-DIS;0.42147 ;0.64346565
RJ;AMPLA;0.54195 ;0.82740458
GO;CELG-D;0.46660 ;0.71236641
MT;EMT;0.50765 ;0.75207407
MG;CEMIG-D;0.50974 ;0.79029457
SP;CPFL - Paulista;0.44719 ;0.64343885
SP;ELEKTRO;0.51041 ;0.73440288
SP;ELETROPAULO;0.43611 ;0.62749640
MS;EMS;0.49925 ;0.71834532
ES;ESCELSA;0.46452 ;0.66837410
RJ;LIGHT;0.54346 ;0.82970992
MA;CEMAR;0.46435 ;0.71992248
PE;CELPE;0.44106 ;0.63461871
BA;COELBA;0.43038 ;0.63760000
CE;COELCE;0.47527 ;0.70410370
RS;AES-SUL;0.47882 ;0.68894964
AM;AMAZONAS;0.44531 ;0.64073381
SP;BANDEIRANTE;0.50057 ;0.72024460
RR;BOA VISTA;0.40664 ;0.52469677
SP;CAIUA ENERGISA;0.43665 ;0.62827338
AP;CEA;0.27262 ;0.33044848
AL;CEAL;0.43911 ;0.63181295
DF;CEB-DIS;0.43676 ;0.62843165
RS;CEEE-D;0.48317 ;0.69520863
TO;ETO;0.50765 ;0.73043165
PI;CEPISA;0.43987 ;0.63290647
RO;CERON;0.49235 ;0.63529032
RR;CERR;0.35264 ;0.45501935
PR;CFLO ENERGISA;0.47539 ;0.72578626
GO;CHESP;0.58191 ;0.88841221
SP;CNEE ENERGISA;0.41887 ;0.60269065
PR;COCEL;0.53199 ;0.81219847
SP;Coop.CEMIRIM;0.42403 ;0.61011511
RS;Coop.CERFOX;0.42403 ;0.61011511
RS;Coop.CERILUZ;0.34461 ;0.49584173
RS;Coop.CERTEL;0.37323 ;0.53702158
RS;Coop.COPREL;0.41444 ;0.59631655
RS;Coop.CRELUZ-D;0.43479 ;0.62559712
SC;COOPERALIANCA;0.55308 ;0.79579856
RN;COSERN;0.40538 ;0.60056296
SP;CPFL - Piratininga;0.51081 ;0.73497842
SP;CPFL Jaguari;0.44105 ;0.63460432
SP;CPFL Leste Paulista;0.46617 ;0.67074820
SP;CPFL Mococa;0.47512 ;0.68362590
SP;CPFL Santa Cruz;0.52133 ;0.75011511
SP;CPFL Sul Paulista;0.48623 ;0.69961151
RS;DEMEI;0.47132 ;0.67815827
MG;DMED;0.49409 ;0.76603101
PB;EBO;0.43668 ;0.64693333
SP;EDEVP ENERGISA;0.45023 ;0.64781295
SP;EEB ENERGISA;0.48437 ;0.69693525
SC;EFLJC;0.52755 ;0.75906475
SC;EFLUL;0.52263 ;0.75198561
AC;ELETROACRE;0.46327 ;0.66657554
RS;ELETROCAR;0.52791 ;0.75958273
ES;ELFSM;0.51900 ;0.74676259
MG;EMG;0.50680 ;0.78573643
RJ;ENF;0.55517 ;0.84758779
PB;EPB;0.41817 ;0.61951111
SE;ESE;0.43233 ;0.64048889
PR;FORCEL;0.55623 ;0.84920611
RS;HIDROPAN;0.54650 ;0.78633094
SC;IENERGIA;0.45465 ;0.65417266
PA;JARI;0.42403 ;0.61011511
RS;MUXENERGIA;0.48088 ;0.69191367
RS;RGE;0.44680 ;0.64287770
SE;SULGIPE;0.51673 ;0.76552593
RS;UHENPAL;0.58908 ;0.84759712
PA;CELPA;0.52539 ;0.75595683